{
	"result": {
		"players": [
			{
				"account_id": 4294967295,
				"player_slot": 0,
				"hero_id": 91,
				"item_0": 29,
				"item_1": 0,
				"item_2": 0,
				"item_3": 92,
				"item_4": 0,
				"item_5": 0,
				"kills": 0,
				"deaths": 13,
				"assists": 3,
				"leaver_status": 0,
				"gold": 265,
				"last_hits": 26,
				"denies": 3,
				"gold_per_min": 138,
				"xp_per_min": 185,
				"gold_spent": 2155,
				"hero_damage": 3740,
				"tower_damage": 13,
				"hero_healing": 0,
				"level": 9
			},
			{
				"account_id": 4294967295,
				"player_slot": 1,
				"hero_id": 32,
				"item_0": 44,
				"item_1": 71,
				"item_2": 63,
				"item_3": 19,
				"item_4": 0,
				"item_5": 0,
				"kills": 2,
				"deaths": 8,
				"assists": 2,
				"leaver_status": 0,
				"gold": 403,
				"last_hits": 23,
				"denies": 0,
				"gold_per_min": 148,
				"xp_per_min": 250,
				"gold_spent": 2580,
				"hero_damage": 3337,
				"tower_damage": 0,
				"hero_healing": 0,
				"level": 11
			},
			{
				"account_id": 4294967295,
				"player_slot": 2,
				"hero_id": 4,
				"item_0": 71,
				"item_1": 34,
				"item_2": 63,
				"item_3": 16,
				"item_4": 81,
				"item_5": 11,
				"kills": 3,
				"deaths": 7,
				"assists": 2,
				"leaver_status": 0,
				"gold": 1263,
				"last_hits": 43,
				"denies": 0,
				"gold_per_min": 225,
				"xp_per_min": 260,
				"gold_spent": 4531,
				"hero_damage": 2951,
				"tower_damage": 0,
				"hero_healing": 60,
				"level": 11
			},
			{
				"account_id": 4294967295,
				"player_slot": 3,
				"hero_id": 10,
				"item_0": 14,
				"item_1": 14,
				"item_2": 14,
				"item_3": 44,
				"item_4": 38,
				"item_5": 29,
				"kills": 0,
				"deaths": 2,
				"assists": 1,
				"leaver_status": 1,
				"gold": 1925,
				"last_hits": 7,
				"denies": 0,
				"gold_per_min": 94,
				"xp_per_min": 80,
				"gold_spent": 1040,
				"hero_damage": 782,
				"tower_damage": 0,
				"hero_healing": 0,
				"level": 6
			},
			{
				"account_id": 4294967295,
				"player_slot": 4,
				"hero_id": 60,
				"item_0": 41,
				"item_1": 13,
				"item_2": 13,
				"item_3": 63,
				"item_4": 182,
				"item_5": 0,
				"kills": 0,
				"deaths": 8,
				"assists": 3,
				"leaver_status": 0,
				"gold": 266,
				"last_hits": 18,
				"denies": 0,
				"gold_per_min": 137,
				"xp_per_min": 254,
				"gold_spent": 2840,
				"hero_damage": 3164,
				"tower_damage": 0,
				"hero_healing": 0,
				"level": 11
			},
			{
				"account_id": 4294967295,
				"player_slot": 128,
				"hero_id": 17,
				"item_0": 77,
				"item_1": 121,
				"item_2": 63,
				"item_3": 0,
				"item_4": 0,
				"item_5": 41,
				"kills": 7,
				"deaths": 1,
				"assists": 12,
				"leaver_status": 0,
				"gold": 5296,
				"last_hits": 101,
				"denies": 14,
				"gold_per_min": 474,
				"xp_per_min": 512,
				"gold_spent": 8450,
				"hero_damage": 6733,
				"tower_damage": 1129,
				"hero_healing": 0,
				"level": 16
			},
			{
				"account_id": 4294967295,
				"player_slot": 129,
				"hero_id": 71,
				"item_0": 92,
				"item_1": 172,
				"item_2": 63,
				"item_3": 36,
				"item_4": 135,
				"item_5": 0,
				"kills": 17,
				"deaths": 1,
				"assists": 15,
				"leaver_status": 0,
				"gold": 8388,
				"last_hits": 116,
				"denies": 10,
				"gold_per_min": 704,
				"xp_per_min": 627,
				"gold_spent": 10476,
				"hero_damage": 17252,
				"tower_damage": 6329,
				"hero_healing": 372,
				"level": 18
			},
			{
				"account_id": 15963354,
				"player_slot": 130,
				"hero_id": 31,
				"item_0": 73,
				"item_1": 214,
				"item_2": 79,
				"item_3": 60,
				"item_4": 23,
				"item_5": 0,
				"kills": 8,
				"deaths": 2,
				"assists": 12,
				"leaver_status": 0,
				"gold": 1381,
				"last_hits": 9,
				"denies": 0,
				"gold_per_min": 345,
				"xp_per_min": 346,
				"gold_spent": 7446,
				"hero_damage": 9581,
				"tower_damage": 508,
				"hero_healing": 0,
				"level": 13
			},
			{
				"account_id": 4294967295,
				"player_slot": 131,
				"hero_id": 62,
				"item_0": 71,
				"item_1": 36,
				"item_2": 0,
				"item_3": 145,
				"item_4": 29,
				"item_5": 0,
				"kills": 0,
				"deaths": 0,
				"assists": 12,
				"leaver_status": 0,
				"gold": 1736,
				"last_hits": 41,
				"denies": 1,
				"gold_per_min": 425,
				"xp_per_min": 410,
				"gold_spent": 10699,
				"hero_damage": 4843,
				"tower_damage": 2192,
				"hero_healing": 0,
				"level": 14
			},
			{
				"account_id": 115446183,
				"player_slot": 132,
				"hero_id": 29,
				"item_0": 180,
				"item_1": 73,
				"item_2": 73,
				"item_3": 36,
				"item_4": 1,
				"item_5": 92,
				"kills": 4,
				"deaths": 4,
				"assists": 12,
				"leaver_status": 0,
				"gold": 1017,
				"last_hits": 15,
				"denies": 4,
				"gold_per_min": 320,
				"xp_per_min": 313,
				"gold_spent": 6749,
				"hero_damage": 5143,
				"tower_damage": 623,
				"hero_healing": 0,
				"level": 12
			}
		]
		,
		"radiant_win": false,
		"duration": 1630,
		"start_time": 1353977077,
		"match_id": 68704807,
		"match_seq_num": 65208602,
		"tower_status_radiant": 0,
		"tower_status_dire": 2047,
		"barracks_status_radiant": 0,
		"barracks_status_dire": 63,
		"cluster": 132,
		"first_blood_time": 228,
		"lobby_type": 0,
		"human_players": 10,
		"leagueid": 0,
		"positive_votes": 0,
		"negative_votes": 0,
		"game_mode": 1
	}
}